%YAML 1.1
%TAG !u! tag:unity3d.com,2011:
--- !u!114 &11400000
MonoBehaviour:
  m_ObjectHideFlags: 0
  m_CorrespondingSourceObject: {fileID: 0}
  m_PrefabInstance: {fileID: 0}
  m_PrefabAsset: {fileID: 0}
  m_GameObject: {fileID: 0}
  m_Enabled: 1
  m_EditorHideFlags: 0
  m_Script: {fileID: 11500000, guid: 9d44d730af2d3df4990f6f359ee32afe, type: 3}
  m_Name: Rifle
  m_EditorClassIdentifier: Assembly-CSharp::NewBehaviourScript
  accuracy: 200
  accReduc: 4
  dmg: 10
  bulletStrength: 700
  RoF: 8
  clip: 30
  projNum: 1
  gunShot: {fileID: 8300000, guid: e16cbfc7d2565744093dbed7def5bb91, type: 3}
  barrel: {fileID: 0}
  muzzleFlash: {fileID: 4601392238224104457, guid: c095dd2fc5aba1b458008ed76a272f61,
    type: 3}
  tracer: {fileID: 4831013079268825994, guid: e32715bbeb9771a43a76b573d2dfa0fd, type: 3}
  gunMesh: {fileID: -2432090755550338912, guid: fd3a39c647344564f8cc2c683573decb,
    type: 3}
  gunCoord: {x: 0.36, y: -0.13, z: 0.05}
  barrelCoord: {x: -0.551, y: 0.024, z: 0}
